{
  "users": [
    {
      "name": "Fabioneeeee",
      "city": "Palermo",
      "gender": "M",
      "subscription": true,
      "id": 11
    },
    {
      "name": "Mariaaaa",
      "city": "Trieste",
      "gender": "F",
      "subscription": false,
      "id": 22
    },
    {
      "name": "Mariowefwe",
      "city": "Milan",
      "gender": "F",
      "subscription": true,
      "id": 333
    },
    {
      "name": "aaaaaa",
      "city": "ewtwetew",
      "gender": "M",
      "subscription": null,
      "id": 334
    },
    {
      "name": "fwefwe",
      "city": "wefew",
      "gender": "M",
      "subscription": null,
      "id": 335
    },
    {
      "name": "ewfewfw",
      "city": "wefwef",
      "gender": "F",
      "subscription": null,
      "id": 336
    },
    {
      "name": "wefewf",
      "city": "wefewfw",
      "gender": "M",
      "subscription": null,
      "id": 337
    }
  ],
  "profile": {
    "name": "typicode"
  }
}